<?xml  version="1.0" encoding="UTF-8"?>
<!DOCTYPE svg PUBLIC "-//W3C//DTD SVG 1.0//EN" "http://www.w3.org/TR/2001/REC-SVG-20010904/DTD/svg10.dtd" >
<svg xmlns="http://www.w3.org/2000/svg" >
<metadata>
<version>1.0</version>
<id><![CDATA[Univers LT W01 73 Black Ext]]></id>
<vendor>Monotype Imaging Inc.</vendor>
<credits>
<name>Fonts.com WebFonts</name>
<URL>http://webfonts.fonts.com</URL>
<role>Home of the Web fonts</role>
</credits>
<license>
<URL>http://webfonts.fonts.com/Legal</URL>
</license>
<copyright><![CDATA[Copyright © 2014 Monotype GmbH. All rights reserved.]]></copyright>
<trademark><![CDATA[Univers is a trademark of Monotype GmbH registered in the U.S. Patent and Trademark Office and may be registered in certain other jurisdictions.]]></trademark>
<licensee>
<name></name>
</licensee>
</metadata>
<defs >
<font horiz-adv-x="701" id="1dd4337f-183b-47ca-a6c7-d717052b9bbd">
<font-face font-family="Univers LT W01 73 Black Ext" panose-1="2 11 10 5 3 5 2 3 2 4" ascent="939" descent="-212" units-per-em="1000" alphabetic="0">
</font-face>
<missing-glyph horiz-adv-x="512" d="M512 718V0H0V718H512ZM462 50V667H50V50H462ZM272 265V233H223V272Q223 333 277 383T332 474Q332 510 310 534T256 559Q225 559 203 537T174 464L124 472Q131 544 168 576T259 609Q313 609 348 574T383 478Q383 427 355 395T299 340T272 265ZM217 184H278V117H217V184Z"  />

<glyph unicode="&#xA;" />
<glyph unicode="&#xD;" horiz-adv-x="370" />
<glyph unicode=" " horiz-adv-x="370" />
<glyph unicode="!" horiz-adv-x="520" d="M372 722L340 213H182L150 722H372ZM353 154V0H167V154H353Z"  />
<glyph unicode="&quot;" horiz-adv-x="667" d="M302 722V482H180V722H302ZM487 722V482H365V722H487Z"  />
<glyph unicode="#" horiz-adv-x="740" d="M385 698L359 511H426L452 698H576L550 511H621V395H534L521 303H592V187H505L480 0H354L381 187H314L288 0H164L190 187H119V303H206L219 395H148V511H235L261 698H385ZM330 303H397L410 395H343L330 303Z"  />
<glyph unicode="$" horiz-adv-x="740" d="M402 810V741Q564 735 633 681T707 516H503Q499 556 476 576T402 601V449L490 431Q618 404 670 355T722 219Q722 -2 402 -19V-97H330V-19Q171 -14 95 45T18 229V234H228Q230 178 252 152T330 121V287Q145 316 89 372T33 502Q33 610 112 671T330 741V810H402ZM330 601Q285 594 264 575T243 530Q243 507 264 491T330 465V601ZM402 121Q454 124 483 143T512 197Q512 225 488 243T402 272V121Z"  />
<glyph unicode="%" horiz-adv-x="1185" d="M924 722L378 -24H262L808 722H924ZM86 337T86 527Q86 621 141 669T297 717Q399 717 453 668T508 527Q507 337 297 337Q86 337 86 527ZM374 580T354 608T297 637Q260 637 240 609T220 527Q220 473 240 445T297 417Q334 417 354 445T374 526Q374 580 354 608ZM677 -19T677 171Q677 265 731 313T888 361Q990 361 1044 313T1099 171Q1099 -19 888 -19Q677 -19 677 171ZM965 224T945 252T888 281Q853 281 832 254T811 171Q811 117 831 89T888 61Q925 61 945 89T965 170Q965 224 945 252Z"  />
<glyph unicode="&amp;" horiz-adv-x="1037" d="M537 379L697 259Q726 288 747 340T772 444H958Q954 353 916 271T825 154L1019 0H741L691 48Q626 7 555 -6T386 -19Q233 -19 146 42T57 189Q57 267 96 313T252 397Q207 431 183 473T158 561Q158 644 232 692T431 741Q544 741 612 691T681 564Q681 455 537 379ZM422 456Q468 478 489 500T511 551Q511 581 489 597T424 613Q391 613 371 597T350 551Q350 527 367 505T422 456ZM565 146L368 304Q317 287 289 261T261 203Q261 161 303 138T414 115Q453 115 486 121T565 146Z"  />
<glyph unicode="&apos;" horiz-adv-x="370" d="M246 722V482H124V722H246Z"  />
<glyph unicode="(" horiz-adv-x="444" d="M389 741Q323 643 283 524T243 302Q243 200 283 81T389 -137H243Q159 -17 116 96T73 302Q73 398 113 503T243 741H389Z"  />
<glyph unicode=")" horiz-adv-x="444" d="M201 741Q283 621 327 509T371 301Q371 204 330 98T201 -137H55Q119 -45 160 77T201 302Q201 401 162 520T55 741H201Z"  />
<glyph unicode="*" horiz-adv-x="519" d="M319 722L287 574L289 572L394 672L453 572L316 529V527L453 484L394 384L289 484L287 482L319 334H200L232 482L230 484L125 384L66 484L203 527V529L66 572L125 672L230 572L232 574L200 722H319Z"  />
<glyph unicode="+" horiz-adv-x="600" d="M367 506V320H553V186H367V0H233V186H47V320H233V506H367Z"  />
<glyph unicode="&#x2c;" horiz-adv-x="370" d="M315 154L180 -121H26L111 154H315Z"  />
<glyph unicode="-" horiz-adv-x="444" d="M378 331V203H66V331H378Z"  />
<glyph unicode="." horiz-adv-x="370" d="M278 154V0H92V154H278Z"  />
<glyph unicode="/" horiz-adv-x="444" d="M437 741L153 -19H7L291 741H437Z"  />
<glyph unicode="0" horiz-adv-x="740" d="M214 -19T127 78T40 349Q40 523 127 620T370 717Q529 717 614 619T700 349Q700 179 615 80T370 -19Q214 -19 127 78ZM496 474T466 531T369 589Q307 589 276 532T244 349Q244 223 276 166T370 109Q434 109 465 167T496 349Q496 474 466 531Z"  />
<glyph unicode="1" horiz-adv-x="740" d="M527 698V0H329V510Q279 478 245 463T130 421V588Q227 616 363 698H527Z"  />
<glyph unicode="2" horiz-adv-x="740" d="M308 142V140H683V0H57V148Q68 155 272 277T476 495Q476 535 449 559T378 583Q277 583 271 482H73Q73 597 148 657T369 717Q516 717 598 658T680 495Q680 398 585 309T308 142Z"  />
<glyph unicode="3" horiz-adv-x="740" d="M501 360V358Q588 352 636 307T685 189Q685 88 601 35T366 -19Q202 -19 124 34T43 205H247Q247 159 276 134T362 109Q418 109 449 133T481 202Q481 294 357 294H309V422H357Q406 422 436 445T466 506Q466 547 438 568T360 589Q322 589 295 568T264 514H66Q71 615 147 666T362 717Q511 717 590 664T670 522Q670 457 631 418T501 360Z"  />
<glyph unicode="4" horiz-adv-x="740" d="M589 698V273H715V145H589V0H403V145H25V311L361 698H589ZM401 570L171 275V273H403V570H401Z"  />
<glyph unicode="5" horiz-adv-x="740" d="M628 698V558H266L255 393Q287 425 331 443T432 462Q544 462 614 397T685 225Q685 110 600 46T365 -19Q205 -19 130 33T55 191H253Q257 153 284 131T356 109Q419 109 453 139T487 218Q487 271 455 302T368 334Q289 334 264 271H72L95 698H628Z"  />
<glyph unicode="6" horiz-adv-x="740" d="M473 522Q466 557 442 573T377 589Q310 589 275 545T240 407Q277 435 324 450T426 466Q540 466 616 401T692 223Q692 113 604 47T378 -19Q211 -19 130 69T48 342Q48 532 131 624T379 717Q522 717 591 671T671 522H473ZM488 272T456 302T369 332Q320 332 286 305T252 225Q252 174 283 145T370 115Q425 115 456 142T488 219Q488 272 456 302Z"  />
<glyph unicode="7" horiz-adv-x="740" d="M667 698V544L357 0H124L469 550H57V698H667Z"  />
<glyph unicode="8" horiz-adv-x="740" d="M519 362V360Q616 343 658 300T700 185Q700 84 614 33T370 -19Q215 -19 128 32T40 185Q40 258 82 300T221 360V362Q145 373 102 415T59 521Q59 615 141 666T370 717Q517 717 599 666T681 521Q681 458 639 416T519 362ZM483 545T454 567T369 589Q315 589 286 567T257 505Q257 465 286 443T370 421Q424 421 453 442T483 505Q483 545 454 567ZM502 251T466 275T369 299Q309 299 274 275T238 204Q238 157 274 133T370 109Q430 109 466 133T502 204Q502 251 466 275Z"  />
<glyph unicode="9" horiz-adv-x="740" d="M223 -19T147 32T67 185H271Q273 152 294 134T370 115Q424 115 455 146T494 246L500 305Q458 275 408 264T307 252Q198 252 123 315T48 473Q48 583 133 650T354 717Q528 717 611 632T692 359Q692 166 610 74T362 -19Q223 -19 147 32ZM483 532T451 557T362 583Q313 583 283 557T252 481Q252 436 282 411T367 386Q421 386 452 413T483 483Q483 532 451 557Z"  />
<glyph unicode=":" horiz-adv-x="370" d="M278 502V348H92V502H278ZM278 154V0H92V154H278Z"  />
<glyph unicode=";" horiz-adv-x="370" d="M278 502V348H92V502H278ZM315 154L180 -121H26L111 154H315Z"  />
<glyph unicode="&lt;" horiz-adv-x="600" d="M553 380L217 253L553 126V-8L47 189V317L553 514V380Z"  />
<glyph unicode="=" horiz-adv-x="600" d="M553 442V308H47V442H553ZM553 198V64H47V198H553Z"  />
<glyph unicode="&gt;" horiz-adv-x="600" d="M47 514L553 317V189L47 -8V126L383 253L47 380V514Z"  />
<glyph unicode="?" horiz-adv-x="741" d="M556 362L494 326Q463 308 449 285T432 213H252L255 256Q260 324 282 350T391 433T478 532Q478 567 437 587T323 607Q278 607 223 598T139 577V717Q193 728 249 734T354 741Q511 741 596 690T682 542Q682 488 646 441T556 362ZM435 154V0H249V154H435Z"  />
<glyph unicode="@" horiz-adv-x="800" d="M491 136T475 148T457 188H455Q441 165 416 151T352 136Q278 136 229 189T180 321Q180 422 241 492T395 562Q433 562 464 548T519 502L529 544H625L575 274Q575 267 574 263Q574 257 577 252T588 246Q621 246 648 290T676 406Q676 513 607 575T416 637Q295 637 213 558T130 360Q130 238 211 162T413 85Q479 85 528 98T619 143H735Q681 62 602 22T413 -19Q239 -19 130 92T20 353Q20 536 133 638T419 741Q583 741 681 656T780 437Q780 292 684 214T515 136Q491 136 475 148ZM482 392T463 413T409 434Q367 434 341 406T314 337Q314 302 333 283T386 264Q422 264 452 292T482 361Q482 392 463 413Z"  />
<glyph unicode="A" horiz-adv-x="1037" d="M648 722L1023 0H788L720 143H300L230 0H14L397 722H648ZM365 277H656L513 582L365 277Z"  />
<glyph unicode="B" horiz-adv-x="889" d="M531 722Q650 722 722 674T794 544Q794 484 754 439T641 375V373Q726 365 775 318T825 202Q825 106 745 53T532 0H100V722H531ZM440 427Q500 427 539 445T578 508Q578 551 548 569T457 588H304V427H440ZM496 134Q552 134 580 154T609 216Q609 258 577 278T503 299H304V134H496Z"  />
<glyph unicode="C" horiz-adv-x="889" d="M844 485H628Q613 593 472 593Q374 593 322 531T269 365Q269 253 320 191T466 129Q539 129 580 158T626 245H848Q842 107 745 44T446 -19Q260 -19 157 81T53 360Q53 549 161 645T479 741Q646 741 744 675T844 486V485Z"  />
<glyph unicode="D" horiz-adv-x="963" d="M512 722Q720 722 815 618T910 368Q910 203 810 102T489 0H100V722H512ZM422 140Q575 140 634 192T694 364Q694 479 634 530T444 582H310V140H422Z"  />
<glyph unicode="E" horiz-adv-x="815" d="M720 722V574H310V440H698V292H310V148H729V0H100V722H720Z"  />
<glyph unicode="F" horiz-adv-x="741" d="M679 722V568H304V418H658V270H304V0H94V722H679Z"  />
<glyph unicode="G" horiz-adv-x="963" d="M660 493Q658 547 616 574T498 601Q386 601 328 540T269 366Q269 246 335 184T525 121Q563 121 602 126T674 139V263H483V397H866V15Q782 2 693 -8T513 -19Q289 -19 173 72T53 347Q53 541 169 641T497 741Q672 741 772 677T876 493H660Z"  />
<glyph unicode="H" horiz-adv-x="963" d="M304 722V435H659V722H869V0H659V287H304V0H94V722H304Z"  />
<glyph unicode="I" horiz-adv-x="370" d="M290 722V0H80V722H290Z"  />
<glyph unicode="J" horiz-adv-x="741" d="M647 722V270Q647 122 569 52T325 -19Q168 -19 88 47T8 236V252H218Q221 185 246 157T327 129Q387 129 412 167T437 272V722H647Z"  />
<glyph unicode="K" horiz-adv-x="889" d="M310 722V403L602 722H855L539 398L878 0H606L312 372H310V0H100V722H310Z"  />
<glyph unicode="L" horiz-adv-x="741" d="M310 722V148H718V0H100V722H310Z"  />
<glyph unicode="M" horiz-adv-x="1259" d="M416 722L629 186L854 722H1167V0H969V588H967L728 0H512L272 588H270V0H92V722H416Z"  />
<glyph unicode="N" horiz-adv-x="963" d="M361 722L690 202H692V722H878V0H600L273 520H271V0H85V722H361Z"  />
<glyph unicode="O" horiz-adv-x="964" d="M273 -19T163 81T53 361Q53 542 165 641T482 741Q685 741 798 643T911 361Q911 181 801 81T482 -19Q273 -19 163 81ZM695 476T641 534T480 593Q377 593 323 534T269 361Q269 247 323 188T482 129Q588 129 641 189T695 361Q695 476 641 534Z"  />
<glyph unicode="P" horiz-adv-x="815" d="M499 722Q631 722 706 660T781 485Q781 368 704 312T478 256H304V0H94V722H499ZM437 396Q503 396 534 418T565 488Q565 536 534 559T452 582H304V396H437Z"  />
<glyph unicode="Q" horiz-adv-x="963" d="M769 110L771 108Q816 127 851 133T922 140H957V0H789Q743 0 697 -3T610 -9L536 -16Q502 -19 481 -19Q274 -19 164 82T53 361Q53 546 167 643T482 741Q683 741 797 642T911 390Q911 299 874 227T769 110ZM695 473T642 533T480 593Q377 593 323 534T269 361Q269 247 323 188T482 129Q588 129 641 188T695 361Q695 473 642 533Z"  />
<glyph unicode="R" horiz-adv-x="889" d="M542 722Q676 722 745 673T814 533Q814 467 767 421T631 358V356Q726 349 758 314T809 154T842 0H619Q613 17 608 46T598 117L589 188Q581 240 552 257T443 274H310V0H100V722H542ZM480 414Q541 414 572 433T604 499Q604 544 571 563T455 582H310V414H480Z"  />
<glyph unicode="S" horiz-adv-x="815" d="M745 516H541Q536 563 505 582T412 601Q349 601 315 583T280 530Q280 485 363 466T549 426T705 357T760 219Q760 102 668 42T395 -19Q223 -19 139 40T55 229V234H265Q267 165 299 143T407 121Q550 121 550 197Q550 226 524 243T437 273L302 299Q179 324 125 374T70 502Q71 617 159 679T400 741Q584 741 662 687T745 516Z"  />
<glyph unicode="T" horiz-adv-x="816" d="M791 722V574H513V0H303V574H25V722H791Z"  />
<glyph unicode="U" horiz-adv-x="963" d="M301 722V314Q301 226 345 178T482 129Q575 129 618 181T662 339V722H872V328Q872 150 775 66T482 -19Q280 -19 186 60T91 300V722H301Z"  />
<glyph unicode="V" horiz-adv-x="889" d="M242 722L452 134L671 722H875L571 0H319L14 722H242Z"  />
<glyph unicode="W" horiz-adv-x="1259" d="M234 722L353 148H355L519 722H772L916 148H918L1046 720L1047 722H1245L1035 0H781L634 568H632L476 0H218L14 722H234Z"  />
<glyph unicode="X" horiz-adv-x="963" d="M314 722L496 492L674 722H924L614 376L949 0H665L468 252L272 0H14L347 376L37 722H314Z"  />
<glyph unicode="Y" horiz-adv-x="888" d="M272 722L457 414L640 722H874L549 257V0H339V257L14 722H272Z"  />
<glyph unicode="Z" horiz-adv-x="815" d="M753 722V530L307 148H764V0H51V186L502 574H81V722H753Z"  />
<glyph unicode="[" horiz-adv-x="444" d="M375 741V625H245V-21H375V-137H93V741H375Z"  />
<glyph unicode="\" horiz-adv-x="444" d="M153 741L437 -19H291L7 741H153Z"  />
<glyph unicode="]" horiz-adv-x="444" d="M351 741V-137H69V-21H199V625H69V741H351Z"  />
<glyph unicode="^" horiz-adv-x="600" d="M361 698L535 333H401L300 558L199 333H65L239 698H361Z"  />
<glyph unicode="_" horiz-adv-x="500" d="M500 -75V-125H0V-75H500Z"  />
<glyph unicode="`" horiz-adv-x="370" d="M182 722L294 582H136L-28 722H182Z"  />
<glyph unicode="a" horiz-adv-x="741" d="M664 102Q664 90 665 60T668 0H482Q480 23 479 46T478 81H476Q447 33 393 7T258 -19Q149 -19 91 24T32 144Q32 229 108 273T327 317H472Q472 369 448 393T359 417Q314 417 291 402T265 354H67Q73 436 149 478T357 521Q519 521 591 472T664 306V102ZM472 219H391Q315 219 276 203T236 143Q236 120 256 106T319 91Q392 91 431 125T472 219Z"  />
<glyph unicode="b" horiz-adv-x="815" d="M273 722V436Q357 521 487 521Q617 521 694 448T771 254Q771 132 694 57T492 -19Q420 -19 367 3T267 83Q267 55 266 36T263 0H77Q79 20 80 42T81 75V722H273ZM567 319T526 362T421 405Q353 405 313 361T273 247Q273 182 314 140T422 97Q488 97 527 140T567 254Q567 319 526 362Z"  />
<glyph unicode="c" horiz-adv-x="741" d="M493 324Q485 372 457 391T382 411Q321 411 285 369T248 252Q248 177 283 134T382 91Q431 91 461 115T493 188H697Q686 86 600 34T370 -19Q224 -19 134 52T44 249Q44 377 132 448T382 521Q517 521 598 471T691 324H493Z"  />
<glyph unicode="d" horiz-adv-x="815" d="M734 722V75Q735 44 735 33T738 0H552Q550 17 549 36T548 83Q501 27 449 4T324 -19Q197 -19 121 57T44 254Q43 376 122 448T328 521Q458 521 542 436V722H734ZM542 319T501 362T393 405Q330 405 289 363T248 254Q248 183 287 140T393 97Q457 97 499 138T542 247Q542 319 501 362Z"  />
<glyph unicode="e" horiz-adv-x="741" d="M697 204H242Q245 144 278 115T374 85Q419 85 445 99T482 153H686Q661 59 593 20T372 -19Q213 -19 129 48T44 243Q44 372 131 446T368 521Q533 521 614 445T697 204ZM493 308Q493 360 462 388T368 417Q317 417 286 391T245 308H493Z"  />
<glyph unicode="f" horiz-adv-x="519" d="M496 608Q481 610 469 611T444 612Q383 612 359 590T334 502H485V380H331V0H139V380H23V502H139Q141 640 201 684T410 728Q425 728 448 727T496 722V608Z"  />
<glyph unicode="g" horiz-adv-x="815" d="M546 422H548Q548 453 549 470T552 502H738Q736 479 735 459T734 428V74Q734 -75 651 -143T373 -211Q224 -211 149 -174T65 -33H269Q276 -69 301 -85T382 -101Q471 -101 506 -62T542 70V109H540Q510 60 449 34T316 7Q198 7 121 81T43 264Q43 382 120 451T320 521Q396 521 452 496T546 422ZM461 129T501 165T542 264Q542 324 500 361T389 399Q325 399 286 364T247 264Q247 202 288 166T392 129Q461 129 501 165Z"  />
<glyph unicode="h" horiz-adv-x="815" d="M273 722V416Q321 472 369 496T485 521Q609 521 671 460T734 286V0H542V259Q542 322 512 357T420 393Q356 393 315 345T273 224V0H81V722H273Z"  />
<glyph unicode="i" horiz-adv-x="370" d="M290 722V582H80V722H290ZM281 502V0H89V502H281Z"  />
<glyph unicode="j" horiz-adv-x="370" d="M290 722V582H80V722H290ZM281 502V31Q281 -88 227 -140T52 -192Q36 -192 22 -192T-46 -189V-70Q24 -70 46 -62T78 -28T89 58V502H281Z"  />
<glyph unicode="k" horiz-adv-x="815" d="M281 722V288L521 502H762L515 287L794 0H529L281 273V0H89V722H281Z"  />
<glyph unicode="l" horiz-adv-x="370" d="M281 722V0H89V722H281Z"  />
<glyph unicode="m" horiz-adv-x="1186" d="M656 408Q693 466 746 493T868 521Q987 521 1046 461T1105 287V0H913V266Q913 323 888 358T806 393Q755 393 722 357T689 269V0H497V261Q497 328 473 360T393 393Q341 393 307 349T273 243V0H81V446Q81 474 77 502H263Q266 437 267 412H269Q305 466 354 493T476 521Q537 521 584 493T656 408Z"  />
<glyph unicode="n" horiz-adv-x="815" d="M734 0H542V259Q542 322 512 357T420 393Q357 393 315 346T273 225V0H81V408Q81 418 80 446T77 502H263Q267 439 267 412H269Q307 463 362 491T482 521Q608 521 671 458T734 287V0Z"  />
<glyph unicode="o" horiz-adv-x="816" d="M233 -19T139 56T44 251Q44 372 138 446T408 521Q584 521 678 446T772 251Q772 129 677 55T408 -19Q233 -19 139 56ZM568 324T525 367T407 411Q335 411 292 366T248 251Q248 177 292 134T408 91Q480 91 524 134T568 251Q568 324 525 367Z"  />
<glyph unicode="p" horiz-adv-x="815" d="M423 -19T370 1T273 66V-192H81V428Q81 437 80 457T77 502H263Q265 481 266 464T267 419Q313 475 366 498T492 521Q619 521 695 445T771 248Q771 127 694 54T487 -19Q423 -19 370 1ZM567 319T528 362T421 405Q355 405 314 363T273 255Q273 183 314 140T422 97Q486 97 526 140T567 248Q567 319 528 362Z"  />
<glyph unicode="q" horiz-adv-x="815" d="M548 419Q548 446 549 463T552 502H738Q735 479 735 469T734 428V-192H542V66Q458 -19 328 -19Q200 -19 122 54T44 248Q44 374 122 447T324 521Q396 521 449 498T548 419ZM542 323T500 364T392 405Q326 405 287 362T248 248Q248 182 289 140T393 97Q459 97 500 140T542 255Q542 323 500 364Z"  />
<glyph unicode="r" horiz-adv-x="519" d="M494 345Q469 348 464 348T445 349Q363 349 318 307T273 192V0H81V408Q81 418 80 446T77 502H263Q265 477 266 453T267 394H269Q302 462 348 485T482 509H494V345Z"  />
<glyph unicode="s" horiz-adv-x="667" d="M613 353H421Q414 395 391 406T329 417Q299 417 278 405T256 373Q256 336 327 324L463 302Q553 288 589 251T625 150Q625 -19 319 -19Q176 -19 112 24T42 157H240Q240 121 259 103T327 85Q427 85 427 140Q427 180 347 192T201 216T96 262T58 353Q58 435 129 478T332 521Q474 521 542 483T613 353Z"  />
<glyph unicode="t" horiz-adv-x="519" d="M331 502H493V380H331V218Q331 161 348 139T418 116Q445 116 493 122V0Q454 -7 423 -9T364 -12Q249 -12 194 33T139 164V380H16V502H139V604L331 674V502Z"  />
<glyph unicode="u" horiz-adv-x="815" d="M273 502V242Q273 179 304 144T395 109Q460 109 501 156T542 277V502H734V94Q734 83 735 56T738 0H552Q551 13 551 25T548 90H546Q508 39 454 10T333 -19Q207 -19 144 43T81 214V502H273Z"  />
<glyph unicode="v" horiz-adv-x="741" d="M231 502L384 110L540 502H726L489 0H252L15 502H231Z"  />
<glyph unicode="w" horiz-adv-x="1185" d="M231 502L350 128H352L484 502H721L855 128H857L986 502H1170L958 0H733L593 386H591L452 0H227L15 502H231Z"  />
<glyph unicode="x" horiz-adv-x="741" d="M291 502L382 359L484 502H706L506 265L726 0H478L359 176L231 0H15L240 265L43 502H291Z"  />
<glyph unicode="y" horiz-adv-x="741" d="M239 502L383 157L537 502H726L368 -192H164L273 0L15 502H239Z"  />
<glyph unicode="z" horiz-adv-x="667" d="M590 502V368L275 118V116H615V0H52V148L354 384V386H77V502H590Z"  />
<glyph unicode="{" horiz-adv-x="444" d="M378 741V625H343Q309 625 297 610T285 567V396Q285 359 256 334T175 303V301Q226 296 255 272T285 205V37Q285 9 297 -6T342 -21H378V-137H270Q209 -137 171 -102T133 -9V178Q133 210 108 227T41 244V360Q84 360 108 377T133 424V613Q133 672 172 706T271 741H378Z"  />
<glyph unicode="|" horiz-adv-x="222" d="M178 741V-19H44V741H178Z"  />
<glyph unicode="}" horiz-adv-x="444" d="M173 741Q235 741 273 705T311 615V424Q311 395 335 378T403 360V244Q360 244 336 227T311 180V-8Q311 -68 272 -102T173 -137H66V-21H103Q133 -21 146 -7T159 40V208Q159 246 188 271T269 301V303Q218 308 189 333T159 396V564Q159 598 146 611T102 625H66V741H173Z"  />
<glyph unicode="~" horiz-adv-x="600" d="M531 239Q497 189 469 170T406 151Q364 151 305 186T189 221Q162 221 142 203T105 149L69 267Q93 313 124 334T194 355Q233 355 307 320T407 285Q429 285 449 300T495 357L531 239Z"  />
<glyph unicode="&#xA0;" horiz-adv-x="370" />
<glyph unicode="&#xA1;" horiz-adv-x="520" d="M353 530V376H167V530H353ZM338 317L370 -192H148L180 317H338Z"  />
<glyph unicode="&#xA2;" horiz-adv-x="740" d="M469 633H527L487 512Q583 493 633 445T691 324H493Q484 374 449 396L349 95Q356 93 364 92T382 91Q431 91 461 115T493 188H697Q686 86 600 34T370 -19Q355 -19 342 -19T312 -16L274 -131H216L258 -6Q154 20 99 85T44 249Q44 379 134 450T382 521Q412 521 431 519L469 633ZM395 410Q391 410 381 411Q320 411 284 368T248 252Q248 210 260 176T299 119L395 410Z"  />
<glyph unicode="&#xA3;" horiz-adv-x="740" d="M712 556H508Q505 625 434 625Q389 625 368 590T347 488V442H514V308H347V140H706V0H67V140H149V308H52V442H149V483Q149 624 215 682T437 741Q705 741 712 556Z"  />
<glyph unicode="&#xA4;" horiz-adv-x="740" d="M228 549Q288 597 370 597Q410 597 447 585T512 549L572 608L631 549L571 492Q594 461 606 425T618 349Q618 267 571 206L631 149L572 90L512 149Q483 126 447 114T370 101Q330 101 293 113T228 149L168 90L109 149L169 206Q146 235 134 272T122 349Q122 388 134 424T169 492L109 549L168 608L228 549ZM496 409T460 448T370 487Q317 487 281 448T244 349Q244 290 280 251T370 211Q425 211 460 251T496 349Q496 409 460 448Z"  />
<glyph unicode="&#xA5;" horiz-adv-x="740" d="M228 722L380 414L533 722H728L538 394H642V296H481L458 257V225H642V127H458V0H282V127H98V225H282V257L259 296H98V394H202L12 722H228Z"  />
<glyph unicode="&#xA6;" horiz-adv-x="222" d="M178 741V448H44V741H178ZM178 274V-19H44V274H178Z"  />
<glyph unicode="&#xA7;" horiz-adv-x="741" d="M621 557Q574 580 497 599T374 619Q339 619 324 610T309 584Q309 573 323 561T377 536L509 498Q601 471 638 440T676 363Q676 320 646 290T538 234V232Q587 223 624 183T661 100Q661 24 597 -15T394 -54Q316 -54 242 -39T98 0V140Q169 106 243 87T365 68Q416 68 433 78T451 109Q451 125 437 136T390 155L257 188Q161 210 113 246T65 334Q65 382 100 415T219 474V476Q156 498 128 527T99 598Q99 667 158 704T351 741Q413 741 477 729T621 691V557ZM411 290Q429 295 450 312T472 349Q472 369 451 382T387 407Q341 420 338 420Q320 416 295 399T269 360Q269 343 291 328T350 303L411 290Z"  />
<glyph unicode="&#xA8;" horiz-adv-x="370" d="M131 722V582H-27V722H131ZM397 722V582H239V722H397Z"  />
<glyph unicode="&#xA9;" horiz-adv-x="800" d="M780 207T669 94T400 -19Q242 -19 131 94T20 361Q20 515 131 628T400 741Q558 741 669 628T780 361Q780 207 669 94ZM505 103T578 178T652 361Q652 469 578 544T399 619Q296 619 222 545T148 361Q148 254 221 179T400 103Q505 103 578 178ZM582 421H484Q472 480 406 480Q364 480 341 449T317 361Q317 308 341 275T405 242Q436 242 458 257T484 307H588Q576 234 527 192T405 150Q317 150 259 209T201 361Q201 454 256 513T403 572Q475 572 522 533T582 421Z"  />
<glyph unicode="&#xAA;" horiz-adv-x="482" d="M440 587V449Q440 436 440 430T443 397H306V446H304Q287 417 251 402T164 387Q98 387 59 413T19 484Q19 540 68 567T225 594H306Q306 626 287 637T234 649Q204 649 191 640T177 619H43Q45 665 97 691T234 717Q348 717 394 684T440 587ZM254 460T279 478T306 526H261Q208 526 184 518T159 490Q159 476 170 468T211 460Q254 460 279 478Z"  />
<glyph unicode="&#xAB;" horiz-adv-x="667" d="M336 462L219 267L336 72H170L48 267L170 462H336ZM595 462L478 267L595 72H429L307 267L429 462H595Z"  />
<glyph unicode="&#xAC;" horiz-adv-x="600" d="M553 442V126H419V308H47V442H553Z"  />
<glyph unicode="&#xAD;" horiz-adv-x="444" d="M378 331V203H66V331H378Z"  />
<glyph unicode="&#xAE;" horiz-adv-x="800" d="M780 203T667 92T400 -19Q246 -19 133 92T20 361Q20 519 133 630T400 741Q554 741 667 630T780 361Q780 203 667 92ZM505 103T578 178T652 361Q652 469 579 544T399 619Q295 619 222 545T148 361Q148 254 221 179T400 103Q505 103 578 178ZM404 564Q490 564 530 536T570 442Q570 396 547 369T484 336L564 178H465L388 331H342V178H250V564H404ZM416 405Q441 405 456 414T472 448Q472 471 455 480T409 490H342V405H416Z"  />
<glyph unicode="&#xAF;" horiz-adv-x="370" d="M399 701V603H-29V701H399Z"  />
<glyph unicode="&#xB0;" horiz-adv-x="400" d="M343 514T301 473T200 431Q141 431 99 473T57 573Q57 636 100 676T200 717Q263 717 303 674T343 574Q343 514 301 473ZM233 493T257 516T281 574Q281 607 258 631T200 655Q167 655 143 632T119 574Q119 539 143 516T200 493Q233 493 257 516Z"  />
<glyph unicode="&#xB1;" horiz-adv-x="600" d="M367 506V400H553V266H367V160H233V266H47V400H233V506H367ZM553 134V0H47V134H553Z"  />
<glyph unicode="&#xB2;" horiz-adv-x="481" d="M445 525T381 471T212 379V377H445V285H36V377L143 434Q231 481 268 514T305 580Q305 605 288 618T245 631Q215 631 197 618T177 576H43Q43 645 93 681T239 717Q339 717 392 680T445 583Q445 525 381 471Z"  />
<glyph unicode="&#xB3;" horiz-adv-x="481" d="M442 563T415 539T328 504V502Q389 497 420 470T451 398Q451 338 396 306T240 274Q127 274 79 309T30 414H170Q170 386 186 373T237 360Q269 360 290 372T311 406Q311 432 294 445T231 459H203V545H235Q264 545 283 556T302 591Q302 612 283 621T236 631Q213 631 197 621T177 589H43Q45 654 94 685T237 717Q336 717 389 685T442 601Q442 563 415 539Z"  />
<glyph unicode="&#xB4;" horiz-adv-x="370" d="M398 722L234 582H76L188 722H398Z"  />
<glyph unicode="&#xB5;" horiz-adv-x="815" d="M273 502V242Q274 174 306 142T395 109Q462 109 502 158T542 277V502H734V94Q734 83 735 56T738 0H552Q550 21 549 42T548 90H546Q507 39 458 10T366 -19Q333 -19 309 -8T275 20H273V-192H81V502H273Z"  />
<glyph unicode="&#xB6;" horiz-adv-x="620" d="M578 722V-35H444V618H375V-35H241V373Q132 373 75 418T18 544Q16 635 76 678T258 722H578Z"  />
<glyph unicode="&#xB7;" horiz-adv-x="370" d="M136 121T101 156T65 241Q65 290 100 325T185 361Q235 361 270 325T305 241Q305 192 270 157T185 121Q136 121 101 156Z"  />
<glyph unicode="&#xB8;" horiz-adv-x="370" d="M242 9L175 -55L177 -57Q186 -54 198 -52T221 -50Q263 -50 295 -72T328 -129Q328 -171 286 -191T171 -211Q143 -211 107 -207T42 -192L64 -139Q87 -147 111 -151T158 -155Q180 -155 193 -148T206 -124Q206 -110 192 -102T155 -94Q130 -94 112 -100L88 -71L168 9H242Z"  />
<glyph unicode="&#xB9;" horiz-adv-x="481" d="M339 706V285H205V589Q171 571 161 566T130 553T76 536V640Q104 648 140 663T228 706H339Z"  />
<glyph unicode="&#xBA;" horiz-adv-x="530" d="M504 475T441 431T265 387Q150 387 88 431T26 552Q26 629 89 673T265 717Q379 717 441 673T504 555Q504 475 441 431ZM311 461T337 485T364 552Q364 594 338 618T264 643Q219 643 193 618T166 552Q166 509 192 485T265 461Q311 461 337 485Z"  />
<glyph unicode="&#xBB;" horiz-adv-x="667" d="M238 462L360 267L238 72H72L189 267L72 462H238ZM497 462L619 267L497 72H331L448 267L331 462H497Z"  />
<glyph unicode="&#xBC;" horiz-adv-x="1111" d="M973 421V169H1049V83H973V0H845V83H601V188L813 421H973ZM699 171V169H845V335H843L699 171ZM325 706V285H191V589Q157 571 147 566T116 553T62 536V640Q90 648 126 663T214 706H325ZM785 753L343 -55H233L675 753H785Z"  />
<glyph unicode="&#xBD;" horiz-adv-x="1111" d="M764 753L322 -55H212L654 753H764ZM335 706V285H201V589Q167 571 157 566T126 553T72 536V640Q100 648 136 663T224 706H335ZM1040 241T976 187T807 95V93H1040V1H631V93L738 150Q826 197 863 230T900 296Q900 321 883 334T840 347Q810 347 792 334T772 292H638Q638 361 688 397T834 433Q934 433 987 396T1040 299Q1040 241 976 187Z"  />
<glyph unicode="&#xBE;" horiz-adv-x="1111" d="M996 421V169H1072V83H996V0H868V83H624V188L836 421H996ZM722 171V169H868V335H866L722 171ZM451 563T424 539T337 504V502Q398 497 429 469T460 398Q460 338 405 306T249 274Q136 274 88 309T39 414H179Q179 386 195 373T246 360Q278 360 299 372T320 406Q320 432 303 445T240 459H212V545H244Q273 545 292 556T311 591Q311 612 292 621T245 631Q222 631 206 621T186 589H52Q54 652 102 684T246 717Q343 717 397 685T451 601Q451 563 424 539ZM848 753L406 -55H296L738 753H848Z"  />
<glyph unicode="&#xBF;" horiz-adv-x="741" d="M492 530V376H306V530H492ZM489 317Q487 296 485 269Q481 203 459 179T350 97T263 -2Q263 -38 305 -57T418 -77Q467 -77 518 -69T602 -47V-187Q550 -198 494 -204T387 -211Q226 -211 143 -159T59 -12Q59 58 111 109T237 198T309 317H489Z"  />
<glyph unicode="&#xC0;" horiz-adv-x="1037" d="M648 722L1023 0H788L720 143H300L230 0H14L397 722H648ZM365 277H656L513 582L365 277ZM516 913L628 773H470L306 913H516Z"  />
<glyph unicode="&#xC1;" horiz-adv-x="1037" d="M648 722L1023 0H788L720 143H300L230 0H14L397 722H648ZM365 277H656L513 582L365 277ZM732 913L568 773H410L522 913H732Z"  />
<glyph unicode="&#xC2;" horiz-adv-x="1037" d="M648 722L1023 0H788L720 143H300L230 0H14L397 722H648ZM365 277H656L513 582L365 277ZM622 913L752 773H594L519 851L444 773H286L415 913H622Z"  />
<glyph unicode="&#xC3;" horiz-adv-x="1037" d="M648 722L1023 0H788L720 143H300L230 0H14L397 722H648ZM365 277H656L513 582L365 277ZM635 876T646 883T669 913H749Q743 773 622 773Q598 773 561 781T488 798L455 806Q437 810 422 810Q403 810 393 803T369 773H289Q295 913 416 913Q429 913 447 911T485 904L524 894Q540 890 570 883T615 876Q635 876 646 883Z"  />
<glyph unicode="&#xC4;" horiz-adv-x="1037" d="M648 722L1023 0H788L720 143H300L230 0H14L397 722H648ZM365 277H656L513 582L365 277ZM465 913V773H307V913H465ZM731 913V773H573V913H731Z"  />
<glyph unicode="&#xC5;" horiz-adv-x="1037" d="M648 722L1023 0H788L720 143H300L230 0H14L397 722H648ZM365 277H656L513 582L365 277ZM444 729T411 754T377 834Q377 885 413 912T519 939Q589 939 625 912T661 834Q661 780 628 755T519 729Q444 729 411 754ZM575 857T559 873T519 889Q494 889 479 873T463 834Q463 811 479 795T519 779Q544 779 559 795T575 834Q575 857 559 873Z"  />
<glyph unicode="&#xC6;" horiz-adv-x="1333" d="M1231 722V574H789L827 440H1207V292H870L908 148H1247V0H736L698 148H331L243 0H14L486 722H1231ZM423 288H659L588 594L423 288Z"  />
<glyph unicode="&#xC7;" horiz-adv-x="889" d="M628 485Q621 538 582 565T472 593Q375 593 322 532T269 365Q269 252 321 191T466 129Q539 129 580 158T626 245H848Q844 120 757 54T497 -18L458 -55L460 -57Q469 -54 481 -52T504 -50Q546 -50 578 -72T611 -129Q611 -171 569 -191T454 -211Q426 -211 391 -207T325 -192L347 -139Q371 -147 394 -151T441 -155Q463 -155 476 -148T489 -124Q489 -110 475 -102T438 -94Q414 -94 395 -100L371 -71L424 -19Q245 -12 149 88T53 360Q53 549 161 645T479 741Q654 741 749 672T844 485H628Z"  />
<glyph unicode="&#xC8;" horiz-adv-x="815" d="M720 722V574H310V440H698V292H310V148H729V0H100V722H720ZM411 913L523 773H365L201 913H411Z"  />
<glyph unicode="&#xC9;" horiz-adv-x="815" d="M720 722V574H310V440H698V292H310V148H729V0H100V722H720ZM627 913L463 773H305L417 913H627Z"  />
<glyph unicode="&#xCA;" horiz-adv-x="815" d="M720 722V574H310V440H698V292H310V148H729V0H100V722H720ZM517 913L647 773H489L414 851L339 773H181L310 913H517Z"  />
<glyph unicode="&#xCB;" horiz-adv-x="815" d="M720 722V574H310V440H698V292H310V148H729V0H100V722H720ZM360 913V773H202V913H360ZM626 913V773H468V913H626Z"  />
<glyph unicode="&#xCC;" horiz-adv-x="370" d="M290 722V0H80V722H290ZM182 913L294 773H136L-28 913H182Z"  />
<glyph unicode="&#xCD;" horiz-adv-x="370" d="M290 722V0H80V722H290ZM398 913L234 773H76L188 913H398Z"  />
<glyph unicode="&#xCE;" horiz-adv-x="370" d="M290 722V0H80V722H290ZM288 913L418 773H260L185 851L110 773H-48L81 913H288Z"  />
<glyph unicode="&#xCF;" horiz-adv-x="370" d="M290 722V0H80V722H290ZM131 913V773H-27V913H131ZM397 913V773H239V913H397Z"  />
<glyph unicode="&#xD0;" horiz-adv-x="963" d="M515 722Q714 722 812 621T910 368Q910 202 811 101T481 0H100V299H18V427H100V722H515ZM484 427V299H310V140H416Q577 140 635 193T694 364Q694 479 633 530T441 582H310V427H484Z"  />
<glyph unicode="&#xD1;" horiz-adv-x="963" d="M361 722L690 202H692V722H878V0H600L273 520H271V0H85V722H361ZM598 876T609 883T632 913H712Q706 773 585 773Q561 773 524 781T451 798L418 806Q400 810 385 810Q366 810 356 803T332 773H252Q258 913 379 913Q392 913 410 911T448 904L487 894Q503 890 533 883T578 876Q598 876 609 883Z"  />
<glyph unicode="&#xD2;" horiz-adv-x="964" d="M273 -19T163 81T53 361Q53 542 165 641T482 741Q685 741 798 643T911 361Q911 181 801 81T482 -19Q273 -19 163 81ZM695 476T641 534T480 593Q377 593 323 534T269 361Q269 247 323 188T482 129Q588 129 641 189T695 361Q695 476 641 534ZM479 913L591 773H433L269 913H479Z"  />
<glyph unicode="&#xD3;" horiz-adv-x="964" d="M273 -19T163 81T53 361Q53 542 165 641T482 741Q685 741 798 643T911 361Q911 181 801 81T482 -19Q273 -19 163 81ZM695 476T641 534T480 593Q377 593 323 534T269 361Q269 247 323 188T482 129Q588 129 641 189T695 361Q695 476 641 534ZM695 913L531 773H373L485 913H695Z"  />
<glyph unicode="&#xD4;" horiz-adv-x="964" d="M273 -19T163 81T53 361Q53 542 165 641T482 741Q685 741 798 643T911 361Q911 181 801 81T482 -19Q273 -19 163 81ZM695 476T641 534T480 593Q377 593 323 534T269 361Q269 247 323 188T482 129Q588 129 641 189T695 361Q695 476 641 534ZM585 913L715 773H557L482 851L407 773H249L378 913H585Z"  />
<glyph unicode="&#xD5;" horiz-adv-x="964" d="M273 -19T163 81T53 361Q53 542 165 641T482 741Q685 741 798 643T911 361Q911 181 801 81T482 -19Q273 -19 163 81ZM695 476T641 534T480 593Q377 593 323 534T269 361Q269 247 323 188T482 129Q588 129 641 189T695 361Q695 476 641 534ZM598 876T609 883T632 913H712Q706 773 585 773Q561 773 524 781T451 798L418 806Q400 810 385 810Q366 810 356 803T332 773H252Q258 913 379 913Q392 913 410 911T448 904L487 894Q503 890 533 883T578 876Q598 876 609 883Z"  />
<glyph unicode="&#xD6;" horiz-adv-x="964" d="M273 -19T163 81T53 361Q53 542 165 641T482 741Q685 741 798 643T911 361Q911 181 801 81T482 -19Q273 -19 163 81ZM695 476T641 534T480 593Q377 593 323 534T269 361Q269 247 323 188T482 129Q588 129 641 189T695 361Q695 476 641 534ZM428 913V773H270V913H428ZM694 913V773H536V913H694Z"  />
<glyph unicode="&#xD7;" horiz-adv-x="600" d="M542 401L393 253L542 105L448 11L300 160L152 11L58 105L207 253L58 401L152 495L300 346L448 495L542 401Z"  />
<glyph unicode="&#xD8;" horiz-adv-x="964" d="M873 748L788 652Q852 598 881 525T911 361Q911 177 798 79T482 -19Q404 -19 344 -6T236 32L142 -74L91 -26L176 70Q112 121 83 198T53 361Q53 549 168 645T482 741Q558 741 619 729T728 691L822 796L873 748ZM611 559Q588 575 556 584T481 593Q377 593 323 533T269 361Q269 319 277 283T305 215L611 559ZM353 163Q377 147 408 138T482 129Q588 129 641 188T695 361Q695 403 687 440T659 508L353 163Z"  />
<glyph unicode="&#xD9;" horiz-adv-x="963" d="M301 722V314Q301 226 345 178T482 129Q575 129 618 181T662 339V722H872V328Q872 150 775 66T482 -19Q280 -19 186 60T91 300V722H301ZM479 913L591 773H433L269 913H479Z"  />
<glyph unicode="&#xDA;" horiz-adv-x="963" d="M301 722V314Q301 226 345 178T482 129Q575 129 618 181T662 339V722H872V328Q872 150 775 66T482 -19Q280 -19 186 60T91 300V722H301ZM695 913L531 773H373L485 913H695Z"  />
<glyph unicode="&#xDB;" horiz-adv-x="963" d="M301 722V314Q301 226 345 178T482 129Q575 129 618 181T662 339V722H872V328Q872 150 775 66T482 -19Q280 -19 186 60T91 300V722H301ZM585 913L715 773H557L482 851L407 773H249L378 913H585Z"  />
<glyph unicode="&#xDC;" horiz-adv-x="963" d="M301 722V314Q301 226 345 178T482 129Q575 129 618 181T662 339V722H872V328Q872 150 775 66T482 -19Q280 -19 186 60T91 300V722H301ZM428 913V773H270V913H428ZM694 913V773H536V913H694Z"  />
<glyph unicode="&#xDD;" horiz-adv-x="888" d="M272 722L457 414L640 722H874L549 257V0H339V257L14 722H272ZM657 913L493 773H335L447 913H657Z"  />
<glyph unicode="&#xDE;" horiz-adv-x="815" d="M304 722V604H498Q635 604 708 540T781 367Q781 250 703 194T478 138H304V0H94V722H304ZM437 278Q503 278 534 300T565 370Q565 418 534 441T452 464H304V278H437Z"  />
<glyph unicode="&#xDF;" horiz-adv-x="889" d="M789 513T753 481T644 426T571 376Q571 343 652 320T793 257T853 148Q853 58 784 20T584 -19Q447 -19 387 22T327 148H519Q523 113 538 99T587 85Q619 85 637 98T655 135Q655 181 562 206T424 267T379 367Q379 429 418 463T530 519T603 572Q603 595 572 610T474 625Q368 625 318 563T267 382V0H75V395Q75 565 175 653T464 741Q631 741 710 691T789 566Q789 513 753 481Z"  />
<glyph unicode="&#xE0;" horiz-adv-x="741" d="M664 102Q664 90 665 60T668 0H482Q480 23 479 46T478 81H476Q447 33 393 7T258 -19Q149 -19 91 24T32 144Q32 229 108 273T327 317H472Q472 369 448 393T359 417Q314 417 291 402T265 354H67Q73 436 149 478T357 521Q519 521 591 472T664 306V102ZM472 219H391Q315 219 276 203T236 143Q236 120 256 106T319 91Q392 91 431 125T472 219ZM368 722L480 582H322L158 722H368Z"  />
<glyph unicode="&#xE1;" horiz-adv-x="741" d="M664 102Q664 90 665 60T668 0H482Q480 23 479 46T478 81H476Q447 33 393 7T258 -19Q149 -19 91 24T32 144Q32 229 108 273T327 317H472Q472 369 448 393T359 417Q314 417 291 402T265 354H67Q73 436 149 478T357 521Q519 521 591 472T664 306V102ZM472 219H391Q315 219 276 203T236 143Q236 120 256 106T319 91Q392 91 431 125T472 219ZM584 722L420 582H262L374 722H584Z"  />
<glyph unicode="&#xE2;" horiz-adv-x="741" d="M664 102Q664 90 665 60T668 0H482Q480 23 479 46T478 81H476Q447 33 393 7T258 -19Q149 -19 91 24T32 144Q32 229 108 273T327 317H472Q472 369 448 393T359 417Q314 417 291 402T265 354H67Q73 436 149 478T357 521Q519 521 591 472T664 306V102ZM472 219H391Q315 219 276 203T236 143Q236 120 256 106T319 91Q392 91 431 125T472 219ZM474 722L604 582H446L371 660L296 582H138L267 722H474Z"  />
<glyph unicode="&#xE3;" horiz-adv-x="741" d="M664 102Q664 90 665 60T668 0H482Q480 23 479 46T478 81H476Q447 33 393 7T258 -19Q149 -19 91 24T32 144Q32 229 108 273T327 317H472Q472 369 448 393T359 417Q314 417 291 402T265 354H67Q73 436 149 478T357 521Q519 521 591 472T664 306V102ZM472 219H391Q315 219 276 203T236 143Q236 120 256 106T319 91Q392 91 431 125T472 219ZM487 685T498 692T521 722H601Q595 582 474 582Q450 582 413 590T340 607L307 615Q289 619 274 619Q255 619 245 612T221 582H141Q147 722 268 722Q303 722 373 704T467 685Q487 685 498 692Z"  />
<glyph unicode="&#xE4;" horiz-adv-x="741" d="M664 102Q664 90 665 60T668 0H482Q480 23 479 46T478 81H476Q447 33 393 7T258 -19Q149 -19 91 24T32 144Q32 229 108 273T327 317H472Q472 369 448 393T359 417Q314 417 291 402T265 354H67Q73 436 149 478T357 521Q519 521 591 472T664 306V102ZM472 219H391Q315 219 276 203T236 143Q236 120 256 106T319 91Q392 91 431 125T472 219ZM317 722V582H159V722H317ZM583 722V582H425V722H583Z"  />
<glyph unicode="&#xE5;" horiz-adv-x="741" d="M664 102Q664 90 665 60T668 0H482Q480 23 479 46T478 81H476Q447 33 393 7T258 -19Q149 -19 91 24T32 144Q32 229 108 273T327 317H472Q472 369 448 393T359 417Q314 417 291 402T265 354H67Q73 436 149 478T357 521Q519 521 591 472T664 306V102ZM472 219H391Q315 219 276 203T236 143Q236 120 256 106T319 91Q392 91 431 125T472 219ZM298 545T264 570T229 650Q229 701 265 728T371 755Q441 755 477 728T513 650Q513 597 480 571T371 545Q298 545 264 570ZM427 674T411 689T371 705Q346 705 331 689T315 650Q315 627 330 611T371 595Q396 595 411 611T427 650Q427 674 411 689Z"  />
<glyph unicode="&#xE6;" horiz-adv-x="1185" d="M591 440Q636 483 690 502T820 521Q976 521 1058 443T1141 213H686Q690 146 726 116T825 85Q870 85 898 103T935 154H1133Q1127 73 1046 27T833 -19Q733 -19 669 6T576 79Q497 -19 299 -19Q178 -19 111 24T44 144Q44 229 120 273T339 317H496Q496 368 468 392T370 417Q278 417 277 354H79Q85 436 162 478T366 521Q452 521 505 502T591 440ZM941 317Q935 362 902 389T815 417Q763 417 729 391T688 317H941ZM496 212H385Q320 212 284 198T248 149Q248 124 272 108T341 91Q410 91 452 124T496 212Z"  />
<glyph unicode="&#xE7;" horiz-adv-x="741" d="M493 324Q485 372 457 391T382 411Q319 411 285 368T248 252Q248 176 284 134T382 91Q431 91 461 115T493 188H697Q688 99 617 45T412 -17L373 -55L375 -57Q384 -54 396 -52T419 -50Q461 -50 493 -72T526 -129Q526 -171 484 -191T369 -211Q341 -211 305 -207T240 -192L262 -139Q279 -145 306 -150T356 -155Q378 -155 391 -148T404 -124Q404 -110 390 -102T354 -94Q328 -94 310 -100L286 -71L339 -17Q203 -9 124 61T44 249Q44 380 136 450T382 521Q517 521 598 471T691 324H493Z"  />
<glyph unicode="&#xE8;" horiz-adv-x="741" d="M697 204H242Q245 144 278 115T374 85Q419 85 445 99T482 153H686Q661 59 593 20T372 -19Q213 -19 129 48T44 243Q44 372 131 446T368 521Q533 521 614 445T697 204ZM493 308Q493 360 462 388T368 417Q317 417 286 391T245 308H493ZM380 722L492 582H334L170 722H380Z"  />
<glyph unicode="&#xE9;" horiz-adv-x="741" d="M697 204H242Q245 144 278 115T374 85Q419 85 445 99T482 153H686Q661 59 593 20T372 -19Q213 -19 129 48T44 243Q44 372 131 446T368 521Q533 521 614 445T697 204ZM493 308Q493 360 462 388T368 417Q317 417 286 391T245 308H493ZM596 722L432 582H274L386 722H596Z"  />
<glyph unicode="&#xEA;" horiz-adv-x="741" d="M697 204H242Q245 144 278 115T374 85Q419 85 445 99T482 153H686Q661 59 593 20T372 -19Q213 -19 129 48T44 243Q44 372 131 446T368 521Q533 521 614 445T697 204ZM493 308Q493 360 462 388T368 417Q317 417 286 391T245 308H493ZM486 722L616 582H458L383 660L308 582H150L279 722H486Z"  />
<glyph unicode="&#xEB;" horiz-adv-x="741" d="M697 204H242Q245 144 278 115T374 85Q419 85 445 99T482 153H686Q661 59 593 20T372 -19Q213 -19 129 48T44 243Q44 372 131 446T368 521Q533 521 614 445T697 204ZM493 308Q493 360 462 388T368 417Q317 417 286 391T245 308H493ZM329 722V582H171V722H329ZM595 722V582H437V722H595Z"  />
<glyph unicode="&#xEC;" horiz-adv-x="370" d="M281 502V0H89V502H281ZM182 722L294 582H136L-28 722H182Z"  />
<glyph unicode="&#xED;" horiz-adv-x="370" d="M281 502V0H89V502H281ZM398 722L234 582H76L188 722H398Z"  />
<glyph unicode="&#xEE;" horiz-adv-x="370" d="M281 502V0H89V502H281ZM288 722L418 582H260L185 660L110 582H-48L81 722H288Z"  />
<glyph unicode="&#xEF;" horiz-adv-x="370" d="M281 502V0H89V502H281ZM131 722V582H-27V722H131ZM397 722V582H239V722H397Z"  />
<glyph unicode="&#xF0;" horiz-adv-x="816" d="M634 728L510 671Q635 599 703 494T772 268Q772 124 677 53T402 -19Q239 -19 142 54T44 239Q44 359 132 430T351 502Q403 502 443 490T520 452L522 454Q494 493 436 534T333 589L194 525L136 571L244 621Q218 630 184 637T126 646L261 756Q306 749 352 738T438 710L576 774L634 728ZM568 307T524 349T407 392Q339 392 294 349T248 239Q248 176 294 134T408 91Q478 91 523 132T568 239Q568 307 524 349Z"  />
<glyph unicode="&#xF1;" horiz-adv-x="815" d="M734 0H542V259Q542 322 512 357T420 393Q357 393 315 346T273 225V0H81V408Q81 418 80 446T77 502H263Q267 439 267 412H269Q307 463 362 491T482 521Q608 521 671 458T734 287V0ZM524 685T535 692T558 722H638Q632 582 511 582Q487 582 450 590T377 607L344 615Q326 619 311 619Q292 619 282 612T258 582H178Q184 722 305 722Q340 722 410 704T504 685Q524 685 535 692Z"  />
<glyph unicode="&#xF2;" horiz-adv-x="816" d="M233 -19T139 56T44 251Q44 372 138 446T408 521Q584 521 678 446T772 251Q772 129 677 55T408 -19Q233 -19 139 56ZM568 324T525 367T407 411Q335 411 292 366T248 251Q248 177 292 134T408 91Q480 91 524 134T568 251Q568 324 525 367ZM405 722L517 582H359L195 722H405Z"  />
<glyph unicode="&#xF3;" horiz-adv-x="816" d="M233 -19T139 56T44 251Q44 372 138 446T408 521Q584 521 678 446T772 251Q772 129 677 55T408 -19Q233 -19 139 56ZM568 324T525 367T407 411Q335 411 292 366T248 251Q248 177 292 134T408 91Q480 91 524 134T568 251Q568 324 525 367ZM621 722L457 582H299L411 722H621Z"  />
<glyph unicode="&#xF4;" horiz-adv-x="816" d="M233 -19T139 56T44 251Q44 372 138 446T408 521Q584 521 678 446T772 251Q772 129 677 55T408 -19Q233 -19 139 56ZM568 324T525 367T407 411Q335 411 292 366T248 251Q248 177 292 134T408 91Q480 91 524 134T568 251Q568 324 525 367ZM511 722L641 582H483L408 660L333 582H175L304 722H511Z"  />
<glyph unicode="&#xF5;" horiz-adv-x="816" d="M233 -19T139 56T44 251Q44 372 138 446T408 521Q584 521 678 446T772 251Q772 129 677 55T408 -19Q233 -19 139 56ZM568 324T525 367T407 411Q335 411 292 366T248 251Q248 177 292 134T408 91Q480 91 524 134T568 251Q568 324 525 367ZM524 685T535 692T558 722H638Q632 582 511 582Q487 582 450 590T377 607L344 615Q326 619 311 619Q292 619 282 612T258 582H178Q184 722 305 722Q340 722 410 704T504 685Q524 685 535 692Z"  />
<glyph unicode="&#xF6;" horiz-adv-x="816" d="M233 -19T139 56T44 251Q44 372 138 446T408 521Q584 521 678 446T772 251Q772 129 677 55T408 -19Q233 -19 139 56ZM568 324T525 367T407 411Q335 411 292 366T248 251Q248 177 292 134T408 91Q480 91 524 134T568 251Q568 324 525 367ZM354 722V582H196V722H354ZM620 722V582H462V722H620Z"  />
<glyph unicode="&#xF7;" horiz-adv-x="600" d="M389 430T363 403T300 376Q263 376 237 403T211 465Q211 502 238 528T300 554Q335 554 362 528T389 465Q389 430 363 403ZM553 320V186H47V320H553ZM389 6T363 -21T300 -48Q263 -48 237 -21T211 41Q211 78 238 104T300 130Q335 130 362 104T389 41Q389 6 363 -21Z"  />
<glyph unicode="&#xF8;" horiz-adv-x="816" d="M715 545L646 468Q707 433 739 376T772 252Q772 127 675 54T408 -19Q354 -19 312 -12T233 7L150 -86L101 -43L170 34Q106 72 75 128T44 250Q44 375 142 448T405 521Q462 521 504 515T583 495L666 588L715 545ZM490 392Q454 411 407 411Q337 411 293 368T248 251Q248 191 277 153L490 392ZM326 111Q342 102 363 97T408 91Q480 91 524 135T568 251Q568 281 561 305T539 349L326 111Z"  />
<glyph unicode="&#xF9;" horiz-adv-x="815" d="M273 502V242Q273 179 304 144T395 109Q460 109 501 156T542 277V502H734V94Q734 83 735 56T738 0H552Q551 13 551 25T548 90H546Q508 39 454 10T333 -19Q207 -19 144 43T81 214V502H273ZM405 722L517 582H359L195 722H405Z"  />
<glyph unicode="&#xFA;" horiz-adv-x="815" d="M273 502V242Q273 179 304 144T395 109Q460 109 501 156T542 277V502H734V94Q734 83 735 56T738 0H552Q551 13 551 25T548 90H546Q508 39 454 10T333 -19Q207 -19 144 43T81 214V502H273ZM621 722L457 582H299L411 722H621Z"  />
<glyph unicode="&#xFB;" horiz-adv-x="815" d="M273 502V242Q273 179 304 144T395 109Q460 109 501 156T542 277V502H734V94Q734 83 735 56T738 0H552Q551 13 551 25T548 90H546Q508 39 454 10T333 -19Q207 -19 144 43T81 214V502H273ZM511 722L641 582H483L408 660L333 582H175L304 722H511Z"  />
<glyph unicode="&#xFC;" horiz-adv-x="815" d="M273 502V242Q273 179 304 144T395 109Q460 109 501 156T542 277V502H734V94Q734 83 735 56T738 0H552Q551 13 551 25T548 90H546Q508 39 454 10T333 -19Q207 -19 144 43T81 214V502H273ZM354 722V582H196V722H354ZM620 722V582H462V722H620Z"  />
<glyph unicode="&#xFD;" horiz-adv-x="741" d="M239 502L383 157L537 502H726L368 -192H164L273 0L15 502H239ZM584 722L420 582H262L374 722H584Z"  />
<glyph unicode="&#xFE;" horiz-adv-x="815" d="M273 722V425H275Q314 476 367 498T492 521Q621 521 696 445T771 248Q771 127 693 54T487 -19Q422 -19 369 1T273 66V-192H81V722H273ZM567 320T527 362T421 405Q355 405 314 363T273 255Q273 183 314 140T422 97Q488 97 527 141T567 248Q567 320 527 362Z"  />
<glyph unicode="&#xFF;" horiz-adv-x="741" d="M239 502L383 157L537 502H726L368 -192H164L273 0L15 502H239ZM317 722V582H159V722H317ZM583 722V582H425V722H583Z"  />
<glyph unicode="&#x131;" horiz-adv-x="370" d="M281 502V0H89V502H281Z"  />
<glyph unicode="&#x152;" horiz-adv-x="1333" d="M681 722H1231V574H848V440H1210V292H848V148H1247V0H749Q728 0 695 -1L555 -5Q521 -5 499 -6Q279 -6 166 89T53 362Q53 536 169 632T477 728Q528 728 575 725T681 722ZM585 142T644 148V574Q635 574 627 575T532 580Q403 580 336 523T269 354Q269 262 336 202T496 142Q585 142 644 148Z"  />
<glyph unicode="&#x153;" horiz-adv-x="1185" d="M603 442Q645 480 697 500T820 521Q976 521 1058 442T1141 213H696Q700 147 735 116T827 85Q870 85 898 103T935 154H1133Q1125 73 1048 27T847 -19Q766 -19 708 2T613 66Q567 21 507 1T368 -19Q220 -19 132 56T44 251Q44 377 136 449T369 521Q441 521 492 505T603 442ZM941 317Q935 362 901 389T815 417Q772 417 738 389T698 317H941ZM520 325T484 368T383 411Q320 411 284 367T248 251Q248 179 284 135T384 91Q447 91 483 135T520 251Q520 325 484 368Z"  />
<glyph unicode="&#x160;" horiz-adv-x="815" d="M745 516H541Q536 563 505 582T412 601Q349 601 315 583T280 530Q280 485 363 466T549 426T705 357T760 219Q760 102 668 42T395 -19Q223 -19 139 40T55 229V234H265Q267 165 299 143T407 121Q550 121 550 197Q550 226 524 243T437 273L302 299Q179 324 125 374T70 502Q71 617 159 679T400 741Q584 741 662 687T745 516ZM333 913L408 835L483 913H641L512 773H305L175 913H333Z"  />
<glyph unicode="&#x161;" horiz-adv-x="667" d="M613 353H421Q414 395 391 406T329 417Q299 417 278 405T256 373Q256 336 327 324L463 302Q553 288 589 251T625 150Q625 -19 319 -19Q176 -19 112 24T42 157H240Q240 121 259 103T327 85Q427 85 427 140Q427 180 347 192T201 216T96 262T58 353Q58 435 129 478T332 521Q474 521 542 483T613 353ZM259 722L334 644L409 722H567L438 582H231L101 722H259Z"  />
<glyph unicode="&#x178;" horiz-adv-x="888" d="M272 722L457 414L640 722H874L549 257V0H339V257L14 722H272ZM390 913V773H232V913H390ZM656 913V773H498V913H656Z"  />
<glyph unicode="&#x17D;" horiz-adv-x="815" d="M753 722V530L307 148H764V0H51V186L502 574H81V722H753ZM333 913L408 835L483 913H641L512 773H305L175 913H333Z"  />
<glyph unicode="&#x17E;" horiz-adv-x="667" d="M590 502V368L275 118V116H615V0H52V148L354 384V386H77V502H590ZM259 722L334 644L409 722H567L438 582H231L101 722H259Z"  />
<glyph unicode="&#x192;" horiz-adv-x="740" d="M558 741T582 739T663 731L644 621Q637 621 617 623T582 625Q533 625 508 601T478 502H634L617 380H460L398 -2Q378 -120 323 -156T154 -192Q105 -192 77 -190T30 -185L49 -73Q68 -75 88 -75Q164 -73 181 -48T211 54L262 380H113L131 502H280Q293 611 314 653T380 718T539 741Q558 741 582 739Z"  />
<glyph unicode="&#x237;" horiz-adv-x="370" d="M281 502V33Q281 -91 227 -141T46 -192Q30 -192 18 -192T-46 -189V-70Q23 -70 45 -62T78 -29T89 56V502H281Z"  />
<glyph unicode="&#x2C6;" horiz-adv-x="370" d="M288 722L418 582H260L185 660L110 582H-48L81 722H288Z"  />
<glyph unicode="&#x2C7;" horiz-adv-x="370" d="M110 722L185 644L260 722H418L289 582H82L-48 722H110Z"  />
<glyph unicode="&#x2DA;" horiz-adv-x="370" d="M112 545T78 570T43 650Q43 701 79 728T185 755Q255 755 291 728T327 650Q327 597 294 571T185 545Q112 545 78 570ZM241 674T225 689T185 705Q160 705 145 689T129 650Q129 627 144 611T185 595Q210 595 225 611T241 650Q241 674 225 689Z"  />
<glyph unicode="&#x2DC;" horiz-adv-x="370" d="M301 685T312 692T335 722H415Q409 582 288 582Q264 582 227 590T154 607L121 615Q103 619 88 619Q69 619 59 612T35 582H-45Q-39 722 82 722Q117 722 187 704T281 685Q301 685 312 692Z"  />
<glyph unicode="&#x2013;" horiz-adv-x="500" d="M500 325V209H0V325H500Z"  />
<glyph unicode="&#x2014;" horiz-adv-x="1000" d="M1000 325V209H0V325H1000Z"  />
<glyph unicode="&#x2018;" horiz-adv-x="370" d="M322 722L240 482H48L176 722H322Z"  />
<glyph unicode="&#x2019;" horiz-adv-x="370" d="M322 722L194 482H48L130 722H322Z"  />
<glyph unicode="&#x201A;" horiz-adv-x="370" d="M322 154L194 -86H48L130 154H322Z"  />
<glyph unicode="&#x201C;" horiz-adv-x="667" d="M345 722L263 482H71L199 722H345ZM596 722L514 482H322L450 722H596Z"  />
<glyph unicode="&#x201D;" horiz-adv-x="667" d="M345 722L217 482H71L153 722H345ZM596 722L468 482H322L404 722H596Z"  />
<glyph unicode="&#x201E;" horiz-adv-x="667" d="M345 154L217 -86H71L153 154H345ZM596 154L468 -86H322L404 154H596Z"  />
<glyph unicode="&#x2020;" horiz-adv-x="668" d="M430 722V558H617V418H430V0H238V418H51V558H238V722H430Z"  />
<glyph unicode="&#x2021;" horiz-adv-x="668" d="M427 722V578H617V444H427V278H617V144H427V0H241V144H51V278H241V444H51V578H241V722H427Z"  />
<glyph unicode="&#x2022;" horiz-adv-x="500" d="M175 180T122 233T69 361Q69 434 122 488T250 542Q323 542 377 489T431 361Q431 286 377 233T250 180Q175 180 122 233Z"  />
<glyph unicode="&#x2026;" horiz-adv-x="1000" d="M260 154V0H74V154H260ZM593 154V0H407V154H593ZM926 154V0H740V154H926Z"  />
<glyph unicode="&#x2030;" horiz-adv-x="1333" d="M771 722L225 -24H109L655 722H771ZM415 446T361 399T214 351Q120 351 67 399T13 534Q13 627 65 672T214 717Q311 717 363 672T415 534Q415 446 361 399ZM255 425T274 452T293 534Q293 591 274 617T213 643Q176 643 156 620T135 534Q135 479 153 452T214 425Q255 425 274 452ZM870 76T816 29T669 -19Q575 -19 522 29T468 164Q468 257 520 302T669 347Q768 347 819 301T870 164Q870 76 816 29ZM1320 76T1267 29T1119 -19Q1025 -19 972 29T918 164Q918 257 970 302T1119 347Q1216 347 1268 301T1320 164Q1320 76 1267 29ZM711 55T729 82T748 164Q748 222 729 247T668 273Q632 273 611 250T590 164Q590 109 608 82T669 55Q711 55 729 82ZM1159 55T1178 81T1198 164Q1198 222 1179 247T1119 273Q1082 273 1061 250T1040 164Q1040 107 1059 81T1119 55Q1159 55 1178 81Z"  />
<glyph unicode="&#x2039;" horiz-adv-x="370" d="M322 462L205 267L322 72H156L34 267L156 462H322Z"  />
<glyph unicode="&#x203A;" horiz-adv-x="370" d="M214 462L336 267L214 72H48L165 267L48 462H214Z"  />
<glyph unicode="&#x2044;" horiz-adv-x="222" d="M387 753L-55 -55H-165L277 753H387Z"  />
<glyph unicode="&#x20AC;" horiz-adv-x="740" d="M727 510H524Q519 541 492 558T423 575Q371 575 341 548T297 470H537L502 381H283V328H481L446 239H295Q305 182 340 153T423 124Q465 124 493 143T524 197H727Q721 83 641 32T400 -19Q273 -19 193 49T89 239H1L36 328H79V356Q79 369 80 381H1L36 470H91Q116 591 202 654T428 717Q569 717 646 664T727 510Z"  />
<glyph unicode="&#x2122;" horiz-adv-x="1000" d="M371 722V630H266V310H132V630H27V722H371ZM629 722L709 483H711L791 722H961V310H839V540H837L762 310H658L583 540H581V310H459V722H629Z"  />


</font>
</defs>
<text x="40" y="40" font-family="Univers LT W01 73 Black Ext" font-size="30" fill="#933" >ABCDEFGHIJKLMNOPQRSTUVWXYZ abcdefghijklmnopqrstuvwxyz AÁÀÂÄÅÃÆ CÇ DÐ EÉÈÊË I Í Ì Î Ï NÑ</text>
<text x="40" y="80" font-family="Univers LT W01 73 Black Ext" font-size="30" fill="#933" >OÓÒÔÖÕØŒ SŠ UÚÙÛÜ YÝŸ ZŽ Þ aáàâäåãæ cç dð eéèêë i ı í ì î ï nñ oóòôöõøœ sšß uúùûü yýÿ zž</text>
<text x="40" y="120" font-family="Univers LT W01 73 Black Ext" font-size="30" fill="#933" >þ 1234567890 ½ ¼ ¾ % ‰ $¢£¥ƒ€¤ † ‡ § ¶ # ^~µ +×± &lt; = &gt; ÷¬ !¡?¿ &quot; &amp; &apos; * ° . , : ; () [ \ ] {} / |</text>
<text x="40" y="160" font-family="Univers LT W01 73 Black Ext" font-size="30" fill="#933" >¦ _ ‚ „ … ‹› «» ‘ ’ “ ” • ­ - – — @ © ® ™ ªº ¹²³ ´ ` ˆ ˜ ¨ ¯ · ¸</text>
</svg>
